<?xml version="1.0" encoding="UTF-8" standalone="no"?>
<!-- Created with Inkscape (http://www.inkscape.org/) -->

<svg
   width="96"
   height="96"
   viewBox="0 0 25.4 25.4"
   version="1.1"
   id="svg1"
   xmlns="http://www.w3.org/2000/svg"
   xmlns:svg="http://www.w3.org/2000/svg">
  <defs
     id="defs1" />
  <g
     id="layer2">
    <rect
       style="fill:#000000;stroke-width:0.264583"
       id="rect2"
       width="27.105175"
       height="27.435726"
       x="-0.4958261"
       y="-0.66110218"
       ry="0" />
  </g>
  <g
     id="layer1">
    <text
       xml:space="preserve"
       style="font-size:5.64444px;fill:#ffff00;stroke-width:0.264583"
       x="1.156929"
       y="24.626043"
       id="text1"><tspan
         id="tspan1"
         style="font-size:5.64444px;fill:#ffff00;stroke-width:0.264583"
         x="1.156929"
         y="24.626043">textlint</tspan></text>
  </g>
</svg>
